<?xml version="1.0" encoding="utf-8"?>
<!DOCTYPE svg PUBLIC "-//W3C//DTD SVG 1.1//EN" "http://www.w3.org/Graphics/SVG/1.1/DTD/svg11.dtd"><svg version="1.1" id="facebook" xmlns="http://www.w3.org/2000/svg" xmlns:xlink="http://www.w3.org/1999/xlink" x="0px" y="0px"
	 viewBox="234 234 32 32" enable-background="new 234 234 32 32" xml:space="preserve">
<path fill="#3b5998"  d="M252.4,266v-14.6h4.7l0.7-5.7h-5.4v-3.6c0-1.6,0.4-2.8,2.7-2.8l2.9,0v-5.1
	c-0.5-0.1-2.2-0.2-4.2-0.2c-4.2,0-7,2.7-7,7.5v4.2H242v5.7h4.7V266H252.4z"/>
</svg>
